{"logits": [-0.347618, 0.336855]}
{"logits": [-0.195723, 0.339955]}
{"logits": [-0.346358, 0.334589]}
{"logits": [0.008479, 0.391942]}
{"logits": [0.65044, -0.008305]}
{"logits": [0.482764, 0.038726]}
{"logits": [0.415162, 0.063008]}
{"logits": [0.540874, 0.010215]}
{"logits": [-0.342273, 0.335328]}
{"logits": [0.471895, 0.05723]}
{"logits": [0.163554, 0.167695]}
{"logits": [-0.349574, 0.332968]}
{"logits": [0.462907, -0.03021]}
{"logits": [-0.348509, 0.335906]}
{"logits": [-0.311563, 0.351436]}
{"logits": [-0.349332, 0.333456]}
{"logits": [0.492417, 0.022618]}
{"logits": [-0.115576, 0.422362]}
{"logits": [0.626534, -0.000533]}
{"logits": [0.624434, -0.022006]}
{"logits": [-0.338243, 0.335486]}
{"logits": [0.566997, -0.087674]}
{"logits": [0.599784, -0.055435]}
{"logits": [0.471579, 0.048339]}
{"logits": [0.421311, 0.027885]}
{"logits": [0.555704, -0.037693]}
{"logits": [-0.347707, 0.338897]}
{"logits": [-0.131546, 0.288405]}
{"logits": [0.526492, 0.030426]}
{"logits": [0.605787, -0.014792]}
{"logits": [-0.291127, 0.352528]}
{"logits": [0.611207, -0.038772]}
{"logits": [0.540624, -0.106874]}
{"logits": [0.667389, -0.051611]}
{"logits": [0.696067, -0.085759]}
{"logits": [0.603387, -0.011627]}
{"logits": [0.584541, -0.04841]}
{"logits": [-0.063583, 0.302993]}
{"logits": [-0.346887, 0.335406]}
{"logits": [0.047907, 0.305499]}
{"logits": [-0.065595, 0.348281]}
{"logits": [-0.083699, 0.197633]}
{"logits": [0.605148, -0.173107]}
{"logits": [0.49278, -0.038002]}
{"logits": [-0.348381, 0.340008]}
{"logits": [0.66964, -0.050371]}
{"logits": [-0.329652, 0.349132]}
{"logits": [0.555689, 0.020598]}
{"logits": [0.59305, -0.058046]}
{"logits": [0.534133, 0.010963]}
{"logits": [0.470584, -0.011644]}
{"logits": [0.497946, 0.05135]}
{"logits": [0.61594, -0.02294]}
{"logits": [0.539014, 0.028963]}
{"logits": [0.676771, -0.098846]}
{"logits": [0.167696, 0.249235]}
{"logits": [0.079267, 0.281517]}
{"logits": [0.17713, 0.178748]}
{"logits": [0.43654, -0.023034]}
{"logits": [0.586269, -0.044675]}
{"logits": [0.44832, 0.026834]}
{"logits": [0.29052, 0.094766]}
{"logits": [-0.129554, 0.3654]}
{"logits": [-0.195793, 0.35638]}
{"logits": [0.555637, -0.028039]}
{"logits": [0.19449, 0.141626]}
{"logits": [-0.042375, 0.30646]}
{"logits": [0.565178, -0.031737]}
{"logits": [0.004325, 0.325157]}
{"logits": [0.53845, -0.016051]}
{"logits": [0.651574, 0.069011]}
{"logits": [0.609462, -0.148455]}
{"logits": [-0.221842, 0.367588]}
{"logits": [0.469936, -0.007852]}
{"logits": [-0.334652, 0.299687]}
{"logits": [-0.217275, 0.335754]}
{"logits": [0.413756, 0.083193]}
{"logits": [-0.343807, 0.325531]}
{"logits": [0.523151, 0.002608]}
{"logits": [-0.136822, 0.300941]}
{"logits": [0.55659, -0.063497]}
{"logits": [0.470305, 0.006122]}
{"logits": [0.014355, 0.374912]}
{"logits": [-0.266568, 0.357649]}
{"logits": [0.60785, -0.08869]}
{"logits": [0.196676, 0.208128]}
{"logits": [-0.179837, 0.334692]}
{"logits": [0.592788, -0.062786]}
{"logits": [0.58296, -0.206904]}
{"logits": [0.672253, 0.003018]}
{"logits": [0.056519, 0.361555]}
{"logits": [0.498998, -0.105758]}
{"logits": [0.571932, -0.026126]}
{"logits": [0.620258, -0.01424]}
{"logits": [0.634467, -0.036896]}
{"logits": [-0.344396, 0.338658]}
{"logits": [0.132691, 0.201332]}
{"logits": [0.529274, -0.015554]}
{"logits": [0.093601, 0.325552]}
{"logits": [-0.275277, 0.336254]}
